<?xml version="1.0" encoding="UTF-8" standalone="no"?>
<!DOCTYPE svg PUBLIC "-//W3C//DTD SVG 20010904//EN"
              "http://www.w3.org/TR/2001/REC-SVG-20010904/DTD/svg10.dtd">

<svg xmlns="http://www.w3.org/2000/svg"
     width="1024" height="1024"
     viewBox="0 0 2560 2560">
  <path id="Selection #6"
        fill="#1ac1b9" stroke="none" stroke-width="0"
        d="M 2025.00,908.21
           C 2059.38,908.15 2091.92,923.70 2118.00,945.25
             2170.68,988.78 2209.56,1063.73 2231.00,1128.00
             2255.43,1201.21 2267.75,1265.39 2275.17,1342.00
             2275.17,1342.00 2279.00,1409.00 2279.00,1409.00
             2279.00,1409.00 2280.00,1424.00 2280.00,1424.00
             2280.00,1424.00 2280.00,1460.00 2280.00,1460.00
             2280.00,1460.00 2279.00,1476.00 2279.00,1476.00
             2279.00,1476.00 2279.00,1489.00 2279.00,1489.00
             2279.00,1489.00 2278.00,1507.00 2278.00,1507.00
             2278.00,1507.00 2277.09,1517.00 2277.09,1517.00
             2275.05,1546.87 2272.02,1576.36 2267.42,1606.00
             2257.94,1667.06 2243.24,1727.56 2220.20,1785.00
             2199.21,1837.33 2172.12,1885.89 2132.00,1926.00
             2102.80,1955.19 2064.16,1976.49 2022.00,1976.00
             1980.11,1975.51 1942.81,1952.81 1914.00,1924.00
             1864.11,1874.11 1834.36,1808.08 1812.33,1742.00
             1790.77,1677.32 1779.38,1609.67 1772.83,1542.00
             1770.74,1520.42 1769.03,1498.69 1769.00,1477.00
             1769.00,1477.00 1768.00,1460.00 1768.00,1460.00
             1768.00,1460.00 1768.00,1422.00 1768.00,1422.00
             1768.00,1422.00 1768.96,1412.00 1768.96,1412.00
             1768.96,1412.00 1768.96,1395.00 1768.96,1395.00
             1768.96,1395.00 1770.00,1380.00 1770.00,1380.00
             1770.00,1380.00 1770.91,1367.00 1770.91,1367.00
             1772.95,1337.13 1775.98,1307.64 1780.58,1278.00
             1789.62,1219.77 1802.75,1165.22 1823.58,1110.00
             1843.30,1057.71 1872.26,1001.74 1912.00,962.00
             1931.29,942.71 1950.42,927.60 1976.00,917.45
             1990.95,911.52 2000.62,910.61 2016.00,908.21
             2016.00,908.21 2025.00,908.21 2025.00,908.21 Z" />
  <path id="mane_outline"
        fill="#e781b3" stroke="#e781b3" stroke-width="1"
        d="M 10.00,184.00
           C 34.59,98.70 101.86,33.26 187.00,9.14
             205.80,3.81 226.44,0.00 246.00,0.00
             246.00,0.00 236.26,18.00 236.26,18.00
             236.26,18.00 230.30,29.58 230.30,29.58
             228.23,31.89 219.33,34.97 216.00,36.42
             208.38,39.74 201.13,43.95 194.00,48.20
             169.51,62.82 148.35,79.47 127.00,98.28
             127.00,98.28 115.00,109.91 115.00,109.91
             115.00,109.91 105.04,119.00 105.04,119.00
             105.04,119.00 96.96,128.00 96.96,128.00
             96.96,128.00 84.09,141.00 84.09,141.00
             84.09,141.00 37.60,196.00 37.60,196.00
             37.60,196.00 13.37,228.00 13.37,228.00
             9.39,233.38 4.97,240.80 0.00,245.00
             0.00,225.41 4.57,202.82 10.00,184.00 Z
           M 1280.00,0.00
           C 1291.00,0.02 1294.76,3.92 1304.00,9.40
             1304.00,9.40 1334.00,27.32 1334.00,27.32
             1364.60,46.61 1394.57,66.54 1424.00,87.58
             1424.00,87.58 1457.00,112.00 1457.00,112.00
             1462.63,82.06 1475.67,52.15 1489.25,25.00
             1489.25,25.00 1497.86,8.00 1497.86,8.00
             1498.85,6.21 1501.04,2.09 1502.63,0.99
             1504.44,-0.26 1507.85,0.00 1510.00,0.00
             1510.00,0.00 1526.00,0.00 1526.00,0.00
             1524.04,6.86 1518.47,16.10 1515.31,23.00
             1515.31,23.00 1509.86,36.00 1509.86,36.00
             1502.63,53.48 1494.76,78.57 1490.13,97.00
             1490.13,97.00 1484.58,121.00 1484.58,121.00
             1484.01,123.56 1482.32,128.96 1483.40,131.34
             1484.30,133.34 1488.21,136.17 1490.00,137.60
             1490.00,137.60 1505.00,149.61 1505.00,149.61
             1505.00,149.61 1557.00,193.00 1557.00,193.00
             1573.02,145.03 1609.70,86.86 1637.31,44.00
             1637.31,44.00 1657.33,14.00 1657.33,14.00
             1664.45,3.33 1664.11,0.02 1675.00,0.00
             1675.00,0.00 1701.00,0.00 1701.00,0.00
             1697.54,6.49 1690.95,13.08 1686.20,19.00
             1686.20,19.00 1660.15,53.00 1660.15,53.00
             1636.64,85.24 1617.57,117.36 1599.75,153.00
             1599.75,153.00 1581.81,193.00 1581.81,193.00
             1580.58,196.17 1576.35,206.15 1576.92,209.00
             1577.85,213.61 1591.05,224.10 1595.00,228.00
             1595.00,228.00 1609.00,241.01 1609.00,241.01
             1609.00,241.01 1648.00,280.00 1648.00,280.00
             1648.00,280.00 1662.99,294.99 1662.99,294.99
             1664.94,296.93 1667.09,299.89 1670.17,299.36
             1670.17,299.36 1693.00,288.86 1693.00,288.86
             1693.00,288.86 1746.00,265.28 1746.00,265.28
             1796.97,243.34 1849.24,223.87 1902.00,206.67
             2010.09,171.43 2120.36,147.55 2233.00,132.72
             2266.97,128.25 2300.87,125.25 2335.00,122.91
             2335.00,122.91 2367.00,121.00 2367.00,121.00
             2367.00,121.00 2384.00,120.00 2384.00,120.00
             2384.00,120.00 2398.00,120.00 2398.00,120.00
             2398.00,120.00 2413.00,119.00 2413.00,119.00
             2413.00,119.00 2470.00,119.00 2470.00,119.00
             2470.00,119.00 2485.00,120.00 2485.00,120.00
             2485.00,120.00 2511.00,120.83 2511.00,120.83
             2513.97,121.11 2519.28,120.56 2521.62,122.02
             2524.39,123.75 2529.25,133.69 2531.00,137.00
             2531.00,137.00 2512.00,138.00 2512.00,138.00
             2512.00,138.00 2468.00,139.00 2468.00,139.00
             2468.00,139.00 2456.00,139.96 2456.00,139.96
             2456.00,139.96 2444.00,139.96 2444.00,139.96
             2444.00,139.96 2429.00,141.04 2429.00,141.04
             2429.00,141.04 2414.00,141.04 2414.00,141.04
             2414.00,141.04 2402.00,142.00 2402.00,142.00
             2402.00,142.00 2381.00,143.00 2381.00,143.00
             2381.00,143.00 2354.00,144.00 2354.00,144.00
             2354.00,144.00 2334.00,145.00 2334.00,145.00
             2334.00,145.00 2315.00,146.00 2315.00,146.00
             2315.00,146.00 2300.00,147.00 2300.00,147.00
             2300.00,147.00 2260.00,149.00 2260.00,149.00
             2260.00,149.00 2249.00,149.96 2249.00,149.96
             2226.19,150.95 2203.62,153.47 2181.00,156.73
             2123.46,165.02 2066.76,179.14 2011.00,195.42
             1936.08,217.31 1860.97,245.22 1789.00,275.42
             1789.00,275.42 1727.00,302.31 1727.00,302.31
             1727.00,302.31 1687.00,320.00 1687.00,320.00
             1687.00,320.00 1703.73,340.00 1703.73,340.00
             1703.73,340.00 1722.40,363.00 1722.40,363.00
             1722.40,363.00 1765.42,422.00 1765.42,422.00
             1765.42,422.00 1786.42,454.00 1786.42,454.00
             1786.42,454.00 1796.00,471.00 1796.00,471.00
             1796.00,471.00 1820.00,460.42 1820.00,460.42
             1820.00,460.42 1869.00,441.05 1869.00,441.05
             1909.53,426.24 1968.37,411.12 2011.00,403.42
             2051.12,396.19 2091.36,390.70 2132.00,387.91
             2132.00,387.91 2160.00,386.00 2160.00,386.00
             2160.00,386.00 2174.00,385.00 2174.00,385.00
             2174.00,385.00 2189.00,385.00 2189.00,385.00
             2189.00,385.00 2205.00,384.00 2205.00,384.00
             2205.00,384.00 2244.00,384.00 2244.00,384.00
             2244.00,384.00 2261.00,385.00 2261.00,385.00
             2261.00,385.00 2281.00,385.00 2281.00,385.00
             2281.00,385.00 2293.00,385.96 2293.00,385.96
             2293.00,385.96 2307.00,385.96 2307.00,385.96
             2307.00,385.96 2321.00,387.00 2321.00,387.00
             2321.00,387.00 2353.00,389.00 2353.00,389.00
             2353.00,389.00 2362.00,389.00 2362.00,389.00
             2362.00,389.00 2443.00,396.17 2443.00,396.17
             2443.00,396.17 2521.00,406.42 2521.00,406.42
             2521.00,406.42 2560.00,413.00 2560.00,413.00
             2560.00,413.00 2560.00,425.00 2560.00,425.00
             2560.00,425.00 2499.00,415.28 2499.00,415.28
             2499.00,415.28 2419.00,407.91 2419.00,407.91
             2419.00,407.91 2412.00,407.00 2412.00,407.00
             2412.00,407.00 2402.00,407.00 2402.00,407.00
             2402.00,407.00 2391.00,405.96 2391.00,405.96
             2391.00,405.96 2376.00,405.96 2376.00,405.96
             2376.00,405.96 2364.00,405.00 2364.00,405.00
             2364.00,405.00 2285.00,405.00 2285.00,405.00
             2285.00,405.00 2270.00,406.00 2270.00,406.00
             2270.00,406.00 2259.00,406.00 2259.00,406.00
             2259.00,406.00 2242.00,407.00 2242.00,407.00
             2242.00,407.00 2232.00,407.91 2232.00,407.91
             2232.00,407.91 2195.00,410.83 2195.00,410.83
             2156.14,414.59 2117.46,419.64 2079.00,426.58
             1993.11,442.06 1894.93,466.63 1814.00,499.00
             1814.00,499.00 1820.70,511.00 1820.70,511.00
             1820.70,511.00 1836.69,540.00 1836.69,540.00
             1836.69,540.00 1868.74,603.00 1868.74,603.00
             1896.71,660.79 1921.17,720.52 1942.69,781.00
             1942.69,781.00 1964.34,845.00 1964.34,845.00
             1966.91,853.01 1974.36,875.87 1975.00,883.00
             1981.59,881.12 1993.23,873.75 2000.00,870.26
             2000.00,870.26 2048.00,846.26 2048.00,846.26
             2092.92,824.51 2142.95,804.44 2190.00,787.69
             2249.91,766.37 2317.87,748.95 2381.00,741.28
             2381.00,741.28 2435.00,736.91 2435.00,736.91
             2435.00,736.91 2445.00,736.00 2445.00,736.00
             2445.00,736.00 2474.00,735.00 2474.00,735.00
             2474.00,735.00 2491.00,734.00 2491.00,734.00
             2491.00,734.00 2543.00,734.00 2543.00,734.00
             2543.00,734.00 2560.00,735.00 2560.00,735.00
             2560.00,735.00 2560.00,785.00 2560.00,785.00
             2560.00,785.00 2526.00,785.00 2526.00,785.00
             2526.00,785.00 2510.00,786.00 2510.00,786.00
             2510.00,786.00 2485.00,786.00 2485.00,786.00
             2485.00,786.00 2470.00,787.00 2470.00,787.00
             2470.00,787.00 2443.00,788.00 2443.00,788.00
             2443.00,788.00 2431.00,789.00 2431.00,789.00
             2431.00,789.00 2422.00,789.00 2422.00,789.00
             2422.00,789.00 2400.00,790.91 2400.00,790.91
             2351.83,794.22 2328.36,796.67 2281.00,809.15
             2199.95,830.51 2111.53,869.70 2036.00,906.26
             2036.00,906.26 1977.00,936.31 1977.00,936.31
             1977.00,936.31 1942.00,955.00 1942.00,955.00
             1942.00,955.00 1935.58,926.00 1935.58,926.00
             1935.58,926.00 1924.85,883.00 1924.85,883.00
             1911.65,834.21 1895.54,786.23 1877.58,739.00
             1798.24,530.44 1668.39,331.56 1498.00,186.43
             1437.04,134.51 1370.46,88.41 1300.00,50.31
             1300.00,50.31 1234.00,17.31 1234.00,17.31
             1234.00,17.31 1196.00,0.00 1196.00,0.00
             1196.00,0.00 1280.00,0.00 1280.00,0.00 Z
           M 272.34,700.00
           C 272.34,700.00 290.12,726.00 290.12,726.00
             290.12,726.00 292.04,749.00 292.04,749.00
             292.04,749.00 292.91,757.00 292.91,757.00
             292.91,757.00 295.28,785.00 295.28,785.00
             295.28,785.00 313.27,927.00 313.27,927.00
             324.76,1004.98 340.52,1082.55 359.63,1159.00
             376.93,1228.23 399.84,1305.14 427.01,1371.00
             441.00,1404.90 455.66,1438.54 472.78,1471.00
             472.78,1471.00 529.99,1570.00 529.99,1570.00
             529.99,1570.00 609.58,1702.00 609.58,1702.00
             609.58,1702.00 682.42,1820.00 682.42,1820.00
             682.42,1820.00 894.81,2161.00 894.81,2161.00
             950.55,2251.99 996.79,2333.79 1041.31,2431.00
             1053.94,2458.59 1065.71,2486.60 1076.42,2515.00
             1076.42,2515.00 1092.00,2560.00 1092.00,2560.00
             1092.00,2560.00 1038.00,2560.00 1038.00,2560.00
             1036.05,2560.00 1032.29,2560.26 1030.74,2559.01
             1029.08,2557.68 1028.78,2554.02 1028.34,2552.00
             1028.34,2552.00 1024.13,2534.00 1024.13,2534.00
             1017.17,2506.17 1008.55,2478.85 998.42,2452.00
             965.34,2364.28 920.40,2279.07 871.80,2199.00
             871.80,2199.00 828.95,2131.00 828.95,2131.00
             828.95,2131.00 770.02,2043.00 770.02,2043.00
             770.02,2043.00 598.66,1796.00 598.66,1796.00
             545.86,1718.41 494.34,1639.49 451.26,1556.00
             431.24,1517.20 411.95,1475.80 396.42,1435.00
             356.86,1331.00 322.77,1190.85 300.80,1081.00
             284.91,1001.54 271.47,921.46 261.85,841.00
             261.85,841.00 253.83,763.00 253.83,763.00
             253.83,763.00 251.91,736.00 251.91,736.00
             251.91,736.00 251.00,725.00 251.00,725.00
             251.00,725.00 250.00,707.00 250.00,707.00
             250.00,707.00 250.00,662.00 250.00,662.00
             250.00,662.00 272.34,700.00 272.34,700.00 Z
           M 8.01,1518.00
           C 8.01,1518.00 22.01,1552.00 22.01,1552.00
             22.01,1552.00 65.86,1653.00 65.86,1653.00
             65.86,1653.00 107.74,1742.00 107.74,1742.00
             139.30,1807.21 172.78,1871.15 208.85,1934.00
             242.21,1992.13 279.03,2048.21 314.58,2105.00
             314.58,2105.00 480.42,2370.00 480.42,2370.00
             480.42,2370.00 559.42,2497.00 559.42,2497.00
             559.42,2497.00 583.05,2535.00 583.05,2535.00
             587.35,2541.87 594.92,2553.10 598.00,2560.00
             598.00,2560.00 582.00,2560.00 582.00,2560.00
             580.09,2560.00 576.91,2560.12 575.18,2559.40
             571.51,2557.86 565.87,2547.66 563.58,2544.00
             563.58,2544.00 536.58,2502.00 536.58,2502.00
             536.58,2502.00 425.95,2328.00 425.95,2328.00
             362.42,2226.71 297.91,2125.74 238.43,2022.00
             202.29,1958.98 169.24,1893.96 136.75,1829.00
             136.75,1829.00 94.69,1744.00 94.69,1744.00
             94.69,1744.00 74.26,1703.00 74.26,1703.00
             74.26,1703.00 24.69,1600.00 24.69,1600.00
             24.69,1600.00 6.58,1562.00 6.58,1562.00
             2.40,1552.41 0.02,1551.97 0.00,1541.00
             0.00,1541.00 0.00,1500.00 0.00,1500.00
             3.18,1504.39 5.83,1512.71 8.01,1518.00 Z
           M 12.25,1949.00
           C 12.25,1949.00 33.25,1991.00 33.25,1991.00
             33.25,1991.00 105.31,2144.00 105.31,2144.00
             148.31,2237.65 188.75,2332.55 227.60,2428.00
             227.60,2428.00 262.20,2514.00 262.20,2514.00
             262.20,2514.00 280.00,2560.00 280.00,2560.00
             280.00,2560.00 264.00,2560.00 264.00,2560.00
             261.78,2560.00 258.30,2560.22 256.41,2558.98
             254.30,2557.58 252.44,2552.41 251.42,2550.00
             251.42,2550.00 242.00,2527.00 242.00,2527.00
             242.00,2527.00 197.85,2420.00 197.85,2420.00
             197.85,2420.00 173.58,2361.00 173.58,2361.00
             173.58,2361.00 60.15,2092.00 60.15,2092.00
             60.15,2092.00 24.14,2009.00 24.14,2009.00
             24.14,2009.00 7.14,1971.00 7.14,1971.00
             3.10,1961.86 0.02,1958.23 0.00,1948.00
             0.00,1948.00 0.00,1926.00 0.00,1926.00
             3.64,1930.58 9.31,1943.13 12.25,1949.00 Z
           M 2560.00,1992.00
           C 2560.00,1992.00 2560.00,2032.00 2560.00,2032.00
             2559.98,2043.01 2555.83,2043.25 2547.00,2049.87
             2547.00,2049.87 2527.00,2064.71 2527.00,2064.71
             2527.00,2064.71 2424.00,2141.15 2424.00,2141.15
             2424.00,2141.15 2326.00,2214.12 2326.00,2214.12
             2326.00,2214.12 2077.00,2398.88 2077.00,2398.88
             2077.00,2398.88 1974.00,2475.42 1974.00,2475.42
             1974.00,2475.42 1890.00,2537.87 1890.00,2537.87
             1890.00,2537.87 1870.00,2552.71 1870.00,2552.71
             1867.42,2554.56 1862.71,2558.48 1860.00,2559.42
             1857.97,2560.11 1855.16,2560.00 1853.00,2560.00
             1853.00,2560.00 1821.00,2560.00 1821.00,2560.00
             1814.44,2560.00 1792.76,2560.89 1788.00,2559.00
             1788.00,2559.00 1829.00,2527.88 1829.00,2527.88
             1829.00,2527.88 1892.00,2479.88 1892.00,2479.88
             1892.00,2479.88 2135.00,2294.88 2135.00,2294.88
             2135.00,2294.88 2416.00,2080.88 2416.00,2080.88
             2416.00,2080.88 2504.00,2013.88 2504.00,2013.88
             2504.00,2013.88 2559.00,1972.00 2559.00,1972.00
             2560.74,1976.38 2560.00,1986.85 2560.00,1992.00 Z
           M 1190.00,2271.00
           C 1190.00,2271.00 1238.00,2286.00 1238.00,2286.00
             1237.41,2292.54 1232.72,2306.92 1230.71,2314.00
             1230.71,2314.00 1217.71,2360.00 1217.71,2360.00
             1217.71,2360.00 1178.86,2497.00 1178.86,2497.00
             1178.86,2497.00 1165.86,2543.00 1165.86,2543.00
             1164.81,2546.71 1162.61,2556.97 1159.58,2558.98
             1157.71,2560.22 1154.21,2560.00 1152.00,2560.00
             1152.00,2560.00 1132.00,2560.00 1132.00,2560.00
             1132.00,2560.00 1129.00,2524.00 1129.00,2524.00
             1129.00,2524.00 1129.00,2516.00 1129.00,2516.00
             1129.00,2516.00 1123.91,2457.00 1123.91,2457.00
             1123.91,2457.00 1122.00,2435.00 1122.00,2435.00
             1121.83,2419.62 1132.33,2394.57 1137.12,2379.00
             1137.12,2379.00 1160.66,2306.00 1160.66,2306.00
             1160.66,2306.00 1174.00,2266.00 1174.00,2266.00
             1174.00,2266.00 1190.00,2271.00 1190.00,2271.00 Z
           M 2551.42,2371.00
           C 2544.96,2393.67 2539.05,2408.26 2527.77,2429.00
             2490.96,2496.71 2423.32,2542.99 2348.00,2556.58
             2319.03,2561.80 2289.32,2560.00 2260.00,2560.00
             2260.00,2560.00 2287.00,2537.58 2287.00,2537.58
             2287.00,2537.58 2347.00,2492.63 2347.00,2492.63
             2347.00,2492.63 2440.00,2426.28 2440.00,2426.28
             2440.00,2426.28 2556.00,2346.00 2556.00,2346.00
             2557.05,2351.05 2552.97,2365.55 2551.42,2371.00 Z" />
  <path id="mane"
        fill="#f4b6d1" stroke="#f4b6d1" stroke-width="1"
        d="M 1502.00,0.00
           C 1502.00,0.00 1495.26,13.00 1495.26,13.00
             1495.26,13.00 1484.26,35.00 1484.26,35.00
             1472.72,58.83 1461.91,84.90 1457.00,111.00
             1457.00,111.00 1434.00,95.00 1434.00,95.00
             1434.00,95.00 1386.00,61.33 1386.00,61.33
             1386.00,61.33 1325.00,22.00 1325.00,22.00
             1325.00,22.00 1289.00,0.00 1289.00,0.00
             1289.00,0.00 1502.00,0.00 1502.00,0.00 Z
           M 1538.00,177.43
           C 1538.00,177.43 1503.00,148.25 1503.00,148.25
             1499.07,145.00 1484.93,134.94 1483.69,130.96
             1482.98,128.69 1484.12,124.40 1484.60,122.00
             1484.60,122.00 1489.13,102.00 1489.13,102.00
             1496.08,74.18 1502.98,52.52 1514.01,26.00
             1514.01,26.00 1521.59,10.00 1521.59,10.00
             1522.81,7.31 1524.83,2.61 1527.38,1.02
             1529.37,-0.22 1532.69,0.00 1535.00,0.00
             1535.00,0.00 1666.00,0.00 1666.00,0.00
             1663.83,5.66 1656.43,15.35 1652.67,21.00
             1652.67,21.00 1627.69,59.00 1627.69,59.00
             1603.87,95.99 1570.77,151.78 1557.00,193.00
             1550.07,188.60 1544.23,182.73 1538.00,177.43 Z
           M 2511.00,120.04
           C 2511.00,120.04 2498.00,120.04 2498.00,120.04
             2498.00,120.04 2483.00,119.00 2483.00,119.00
             2483.00,119.00 2400.00,119.00 2400.00,119.00
             2400.00,119.00 2385.00,120.00 2385.00,120.00
             2385.00,120.00 2354.00,121.00 2354.00,121.00
             2354.00,121.00 2330.00,122.91 2330.00,122.91
             2330.00,122.91 2223.00,133.72 2223.00,133.72
             2135.38,144.64 2034.59,166.34 1950.00,191.72
             1888.08,210.29 1826.64,231.40 1767.00,256.42
             1767.00,256.42 1703.00,284.31 1703.00,284.31
             1703.00,284.31 1671.00,298.89 1671.00,298.89
             1667.40,299.59 1665.40,297.27 1663.00,294.98
             1663.00,294.98 1648.00,280.00 1648.00,280.00
             1648.00,280.00 1597.00,230.09 1597.00,230.09
             1597.00,230.09 1583.00,217.28 1583.00,217.28
             1580.78,215.31 1577.54,213.02 1576.78,210.00
             1575.98,206.77 1579.51,199.21 1580.80,196.00
             1580.80,196.00 1594.76,163.00 1594.76,163.00
             1617.56,116.62 1638.23,81.52 1669.37,40.00
             1669.37,40.00 1690.80,13.00 1690.80,13.00
             1697.56,4.68 1699.05,0.02 1710.00,0.00
             1710.00,0.00 2318.00,0.00 2318.00,0.00
             2328.54,0.02 2344.48,2.70 2355.00,4.80
             2402.35,14.27 2442.21,35.62 2478.00,67.83
             2489.48,78.17 2499.61,89.63 2508.87,102.00
             2513.01,107.52 2518.56,114.63 2521.00,121.00
             2521.00,121.00 2511.00,120.04 2511.00,120.04 Z
           M 224.01,45.00
           C 224.01,45.00 213.69,72.00 213.69,72.00
             204.70,97.28 198.65,123.74 193.40,150.00
             187.13,181.38 184.09,213.16 181.91,245.00
             181.91,245.00 180.96,255.00 180.96,255.00
             180.96,255.00 180.96,270.00 180.96,270.00
             180.96,270.00 180.00,282.00 180.00,282.00
             180.00,282.00 180.00,319.00 180.00,319.00
             180.00,319.00 181.00,334.00 181.00,334.00
             181.00,334.00 181.00,346.00 181.00,346.00
             181.00,346.00 182.00,364.00 182.00,364.00
             182.00,364.00 182.96,375.00 182.96,375.00
             182.96,375.00 188.72,437.00 188.72,437.00
             194.13,478.46 201.21,519.66 212.42,560.00
             218.96,583.51 226.71,606.35 235.80,629.00
             235.80,629.00 248.87,659.00 248.87,659.00
             249.07,661.12 249.00,663.81 248.87,666.00
             248.87,666.00 248.87,691.00 248.87,691.00
             248.87,691.00 250.00,706.00 250.00,706.00
             250.00,706.00 251.00,732.00 251.00,732.00
             251.00,732.00 252.91,755.00 252.91,755.00
             252.91,755.00 258.84,818.00 258.84,818.00
             265.21,877.61 274.49,936.94 284.75,996.00
             299.75,1082.38 317.83,1168.19 340.12,1253.00
             356.26,1314.41 373.83,1375.61 396.42,1435.00
             407.70,1464.64 421.09,1493.22 434.31,1522.00
             434.31,1522.00 454.69,1562.00 454.69,1562.00
             454.69,1562.00 482.58,1613.00 482.58,1613.00
             514.95,1669.46 550.05,1724.20 586.66,1778.00
             586.66,1778.00 780.34,2058.00 780.34,2058.00
             820.36,2116.81 859.43,2176.28 894.85,2238.00
             936.74,2310.99 969.65,2376.06 999.42,2455.00
             1007.84,2477.32 1014.92,2499.98 1021.15,2523.00
             1023.81,2532.84 1028.55,2550.25 1029.00,2560.00
             1029.00,2560.00 606.00,2560.00 606.00,2560.00
             603.81,2560.00 600.46,2560.25 598.61,2559.01
             596.49,2557.58 587.46,2542.27 585.42,2539.00
             585.42,2539.00 543.81,2472.00 543.81,2472.00
             543.81,2472.00 369.58,2193.00 369.58,2193.00
             369.58,2193.00 287.95,2063.00 287.95,2063.00
             287.95,2063.00 210.42,1937.00 210.42,1937.00
             162.64,1854.67 119.40,1769.48 79.69,1683.00
             59.34,1638.68 39.09,1594.23 20.80,1549.00
             20.80,1549.00 6.40,1514.00 6.40,1514.00
             2.99,1505.48 0.02,1500.30 0.00,1491.00
             0.00,1491.00 0.00,869.00 0.00,869.00
             0.00,869.00 0.00,254.00 0.00,254.00
             0.02,242.94 5.47,238.76 11.71,230.00
             11.71,230.00 45.20,186.00 45.20,186.00
             88.00,132.58 143.35,75.11 204.00,42.31
             204.00,42.31 229.00,31.00 229.00,31.00
             229.01,35.19 225.66,41.00 224.01,45.00 Z
           M 1727.00,302.31
           C 1727.00,302.31 1789.00,275.42 1789.00,275.42
             1891.54,232.39 2009.27,191.32 2118.00,168.21
             2157.98,159.71 2198.27,153.70 2239.00,150.91
             2239.00,150.91 2249.00,150.00 2249.00,150.00
             2249.00,150.00 2253.00,150.00 2253.00,150.00
             2253.00,150.00 2272.00,149.00 2272.00,149.00
             2272.00,149.00 2289.00,148.00 2289.00,148.00
             2289.00,148.00 2299.00,147.00 2299.00,147.00
             2299.00,147.00 2311.00,147.00 2311.00,147.00
             2311.00,147.00 2324.00,146.00 2324.00,146.00
             2324.00,146.00 2339.00,145.00 2339.00,145.00
             2339.00,145.00 2414.00,142.00 2414.00,142.00
             2414.00,142.00 2427.00,140.96 2427.00,140.96
             2427.00,140.96 2441.00,140.96 2441.00,140.96
             2441.00,140.96 2453.00,139.96 2453.00,139.96
             2453.00,139.96 2467.00,139.96 2467.00,139.96
             2467.00,139.96 2479.00,139.00 2479.00,139.00
             2479.00,139.00 2524.00,138.00 2524.00,138.00
             2526.13,138.00 2529.58,137.75 2531.37,138.99
             2534.12,140.92 2540.48,157.00 2542.14,161.00
             2550.91,182.22 2559.96,219.12 2560.00,242.00
             2560.00,242.00 2560.00,413.00 2560.00,413.00
             2525.37,406.48 2490.06,400.69 2455.00,397.17
             2455.00,397.17 2399.00,391.83 2399.00,391.83
             2399.00,391.83 2360.00,388.91 2360.00,388.91
             2360.00,388.91 2350.00,388.00 2350.00,388.00
             2350.00,388.00 2328.00,387.00 2328.00,387.00
             2328.00,387.00 2314.00,385.96 2314.00,385.96
             2314.00,385.96 2302.00,385.96 2302.00,385.96
             2302.00,385.96 2292.00,385.00 2292.00,385.00
             2292.00,385.00 2276.00,385.00 2276.00,385.00
             2276.00,385.00 2259.00,384.00 2259.00,384.00
             2259.00,384.00 2194.00,384.00 2194.00,384.00
             2194.00,384.00 2182.00,384.96 2182.00,384.96
             2182.00,384.96 2168.00,384.96 2168.00,384.96
             2168.00,384.96 2152.00,386.00 2152.00,386.00
             2152.00,386.00 2140.00,386.91 2140.00,386.91
             2140.00,386.91 2106.00,389.83 2106.00,389.83
             2051.83,395.08 1997.69,404.03 1945.00,417.88
             1910.11,427.05 1875.55,437.91 1842.00,451.20
             1842.00,451.20 1797.00,471.00 1797.00,471.00
             1797.00,471.00 1762.66,418.00 1762.66,418.00
             1762.66,418.00 1726.12,368.00 1726.12,368.00
             1726.12,368.00 1701.73,338.00 1701.73,338.00
             1697.20,332.69 1690.48,326.33 1688.00,320.00
             1688.00,320.00 1727.00,302.31 1727.00,302.31 Z
           M 2098.00,423.58
           C 2139.22,417.18 2180.42,411.77 2222.00,408.91
             2222.00,408.91 2253.00,407.00 2253.00,407.00
             2253.00,407.00 2269.00,405.96 2269.00,405.96
             2269.00,405.96 2283.00,405.96 2283.00,405.96
             2283.00,405.96 2295.00,405.00 2295.00,405.00
             2295.00,405.00 2350.00,405.00 2350.00,405.00
             2350.00,405.00 2365.00,406.00 2365.00,406.00
             2365.00,406.00 2380.00,406.00 2380.00,406.00
             2380.00,406.00 2395.00,407.00 2395.00,407.00
             2395.00,407.00 2420.00,408.00 2420.00,408.00
             2420.00,408.00 2442.00,409.83 2442.00,409.83
             2442.00,409.83 2470.00,412.17 2470.00,412.17
             2470.00,412.17 2525.00,419.27 2525.00,419.27
             2525.00,419.27 2560.00,425.00 2560.00,425.00
             2560.00,425.00 2560.00,734.00 2560.00,734.00
             2560.00,734.00 2477.00,734.00 2477.00,734.00
             2477.00,734.00 2462.00,735.00 2462.00,735.00
             2462.00,735.00 2446.00,736.00 2446.00,736.00
             2446.00,736.00 2437.00,736.00 2437.00,736.00
             2437.00,736.00 2388.00,740.17 2388.00,740.17
             2337.33,745.24 2276.72,759.88 2228.00,775.02
             2172.74,792.20 2115.59,815.16 2063.00,839.31
             2063.00,839.31 2002.00,869.26 2002.00,869.26
             2002.00,869.26 1976.00,883.00 1976.00,883.00
             1976.00,883.00 1964.98,846.00 1964.98,846.00
             1964.98,846.00 1948.66,797.00 1948.66,797.00
             1931.31,747.03 1910.70,694.07 1888.69,646.00
             1875.33,616.83 1861.96,587.23 1846.69,559.00
             1846.69,559.00 1826.70,522.00 1826.70,522.00
             1826.70,522.00 1814.00,499.00 1814.00,499.00
             1896.42,466.22 2010.14,437.22 2098.00,423.58 Z
           M 2390.00,791.91
           C 2390.00,791.91 2419.00,789.91 2419.00,789.91
             2419.00,789.91 2430.00,789.00 2430.00,789.00
             2430.00,789.00 2446.00,788.00 2446.00,788.00
             2446.00,788.00 2478.00,787.00 2478.00,787.00
             2478.00,787.00 2495.00,786.00 2495.00,786.00
             2495.00,786.00 2560.00,786.00 2560.00,786.00
             2560.00,786.00 2560.00,1964.00 2560.00,1964.00
             2560.00,1965.85 2560.14,1969.04 2559.43,1970.70
             2557.97,1974.12 2545.58,1982.69 2542.00,1985.37
             2542.00,1985.37 2487.00,2027.35 2487.00,2027.35
             2487.00,2027.35 2256.00,2203.13 2256.00,2203.13
             2256.00,2203.13 1908.00,2468.13 1908.00,2468.13
             1908.00,2468.13 1819.00,2535.88 1819.00,2535.88
             1819.00,2535.88 1799.00,2551.13 1799.00,2551.13
             1790.96,2557.22 1790.35,2559.98 1780.00,2560.00
             1780.00,2560.00 1161.00,2560.00 1161.00,2560.00
             1161.00,2560.00 1167.29,2538.00 1167.29,2538.00
             1167.29,2538.00 1179.58,2495.00 1179.58,2495.00
             1179.58,2495.00 1217.42,2361.00 1217.42,2361.00
             1217.42,2361.00 1231.14,2313.00 1231.14,2313.00
             1231.14,2313.00 1238.00,2287.00 1238.00,2287.00
             1238.00,2287.00 1263.00,2293.58 1263.00,2293.58
             1263.00,2293.58 1307.00,2305.12 1307.00,2305.12
             1343.30,2313.73 1379.98,2320.71 1417.00,2325.28
             1417.00,2325.28 1456.00,2329.09 1456.00,2329.09
             1456.00,2329.09 1466.00,2330.00 1466.00,2330.00
             1466.00,2330.00 1487.00,2331.00 1487.00,2331.00
             1487.00,2331.00 1521.00,2331.00 1521.00,2331.00
             1521.00,2331.00 1533.00,2330.04 1533.00,2330.04
             1533.00,2330.04 1544.00,2330.04 1544.00,2330.04
             1544.00,2330.04 1554.00,2329.09 1554.00,2329.09
             1554.00,2329.09 1568.00,2328.17 1568.00,2328.17
             1568.00,2328.17 1605.00,2324.83 1605.00,2324.83
             1627.67,2322.56 1650.65,2318.40 1673.00,2314.00
             1752.91,2298.27 1833.05,2273.23 1906.00,2236.75
             1949.40,2215.05 1994.97,2187.42 2031.00,2154.83
             2031.00,2154.83 2047.00,2139.00 2047.00,2139.00
             2074.70,2111.30 2097.52,2075.40 2098.00,2035.00
             2098.59,1984.28 2062.46,1956.50 2026.00,1927.79
             2026.00,1927.79 1982.00,1893.00 1982.00,1893.00
             1982.00,1893.00 2008.13,1859.00 2008.13,1859.00
             2008.13,1859.00 2059.98,1787.00 2059.98,1787.00
             2100.11,1728.76 2147.15,1646.33 2176.69,1582.00
             2201.66,1527.64 2223.43,1474.03 2241.66,1417.00
             2241.66,1417.00 2258.12,1360.00 2258.12,1360.00
             2258.12,1360.00 2266.00,1331.00 2266.00,1331.00
             2266.00,1331.00 2271.58,1359.00 2271.58,1359.00
             2271.58,1359.00 2280.58,1401.00 2280.58,1401.00
             2289.22,1440.35 2302.11,1500.52 2323.23,1534.00
             2335.21,1553.00 2352.29,1567.29 2368.00,1583.00
             2390.55,1605.55 2415.42,1622.48 2448.00,1625.08
             2457.48,1625.84 2469.37,1626.74 2478.00,1622.00
             2469.60,1617.95 2455.90,1608.34 2448.00,1602.71
             2420.81,1583.33 2406.51,1570.62 2383.00,1547.00
             2374.41,1538.37 2366.19,1528.08 2359.34,1518.00
             2355.74,1512.69 2351.81,1507.20 2350.00,1501.00
             2350.00,1501.00 2381.00,1517.14 2381.00,1517.14
             2406.30,1528.32 2428.24,1530.40 2455.00,1522.71
             2464.28,1520.04 2475.31,1516.21 2482.00,1509.00
             2482.00,1509.00 2465.00,1509.00 2465.00,1509.00
             2457.51,1508.99 2450.32,1507.69 2443.00,1506.20
             2412.40,1499.98 2384.34,1486.05 2360.00,1466.60
             2353.70,1461.57 2334.39,1445.16 2331.16,1439.00
             2329.75,1436.31 2327.25,1420.12 2326.59,1416.00
             2326.59,1416.00 2320.00,1366.00 2320.00,1366.00
             2320.00,1366.00 2348.00,1382.14 2348.00,1382.14
             2363.17,1390.56 2388.61,1402.79 2406.00,1403.00
             2406.00,1403.00 2414.00,1403.00 2414.00,1403.00
             2428.15,1402.98 2449.93,1398.61 2459.00,1387.00
             2448.48,1386.52 2435.18,1382.93 2425.00,1380.00
             2396.96,1371.92 2364.98,1355.91 2342.00,1337.99
             2334.73,1332.32 2327.53,1326.51 2321.00,1320.00
             2318.16,1317.17 2314.34,1313.76 2312.89,1310.00
             2312.89,1310.00 2309.85,1289.00 2309.85,1289.00
             2309.85,1289.00 2305.85,1261.00 2305.85,1261.00
             2305.85,1261.00 2300.34,1227.00 2300.34,1227.00
             2299.33,1222.11 2295.98,1207.07 2296.33,1203.00
             2296.33,1203.00 2305.57,1154.00 2305.57,1154.00
             2310.37,1125.37 2313.78,1093.95 2315.04,1065.00
             2315.04,1065.00 2316.00,1052.00 2316.00,1052.00
             2316.00,1052.00 2317.00,1029.00 2317.00,1029.00
             2317.00,1029.00 2317.00,988.00 2317.00,988.00
             2317.00,988.00 2316.00,971.00 2316.00,971.00
             2316.00,971.00 2313.17,925.00 2313.17,925.00
             2310.18,893.78 2306.45,861.93 2296.49,832.00
             2296.49,832.00 2287.00,808.00 2287.00,808.00
             2321.66,797.95 2354.28,794.37 2390.00,791.91 Z
           M 9.25,1568.00
           C 9.25,1568.00 26.31,1604.00 26.31,1604.00
             26.31,1604.00 37.74,1627.00 37.74,1627.00
             37.74,1627.00 72.26,1699.00 72.26,1699.00
             72.26,1699.00 93.74,1742.00 93.74,1742.00
             93.74,1742.00 164.74,1884.00 164.74,1884.00
             164.74,1884.00 233.42,2013.00 233.42,2013.00
             272.58,2082.13 314.74,2149.49 356.58,2217.00
             356.58,2217.00 462.05,2385.00 462.05,2385.00
             462.05,2385.00 534.69,2499.00 534.69,2499.00
             534.69,2499.00 559.69,2538.00 559.69,2538.00
             563.44,2543.83 570.70,2553.99 573.00,2560.00
             573.00,2560.00 280.00,2560.00 280.00,2560.00
             280.00,2560.00 257.20,2501.00 257.20,2501.00
             257.20,2501.00 215.42,2398.00 215.42,2398.00
             181.55,2317.28 147.76,2236.60 111.31,2157.00
             111.31,2157.00 87.22,2104.00 87.22,2104.00
             87.22,2104.00 25.75,1976.00 25.75,1976.00
             25.75,1976.00 13.14,1950.00 13.14,1950.00
             10.41,1945.08 1.38,1928.58 0.13,1924.00
             -0.07,1921.88 0.00,1919.19 0.13,1917.00
             0.13,1917.00 0.13,1550.00 0.13,1550.00
             4.08,1555.14 6.30,1562.07 9.25,1568.00 Z
           M 9.31,1976.00
           C 9.31,1976.00 29.30,2021.00 29.30,2021.00
             29.30,2021.00 93.42,2170.00 93.42,2170.00
             93.42,2170.00 204.01,2435.00 204.01,2435.00
             204.01,2435.00 237.42,2516.00 237.42,2516.00
             237.42,2516.00 255.00,2560.00 255.00,2560.00
             255.00,2560.00 242.00,2560.00 242.00,2560.00
             225.42,2559.97 200.10,2554.64 184.00,2550.00
             101.43,2526.19 34.08,2459.75 10.29,2377.00
             5.50,2360.33 0.03,2335.20 0.00,2318.00
             0.00,2318.00 0.00,1957.00 0.00,1957.00
             0.00,1957.00 9.31,1976.00 9.31,1976.00 Z
           M 1903.00,2527.88
           C 1903.00,2527.88 2043.00,2423.88 2043.00,2423.88
             2043.00,2423.88 2214.00,2296.88 2214.00,2296.88
             2214.00,2296.88 2339.00,2204.13 2339.00,2204.13
             2339.00,2204.13 2428.00,2138.12 2428.00,2138.12
             2428.00,2138.12 2496.00,2087.58 2496.00,2087.58
             2496.00,2087.58 2537.00,2057.13 2537.00,2057.13
             2537.00,2057.13 2560.00,2041.00 2560.00,2041.00
             2560.00,2041.00 2560.00,2318.00 2560.00,2318.00
             2559.99,2323.17 2558.63,2341.07 2556.15,2344.91
             2553.93,2348.33 2546.60,2352.54 2543.00,2355.02
             2543.00,2355.02 2516.00,2373.66 2516.00,2373.66
             2516.00,2373.66 2415.00,2444.02 2415.00,2444.02
             2415.00,2444.02 2298.00,2529.37 2298.00,2529.37
             2298.00,2529.37 2273.00,2548.80 2273.00,2548.80
             2264.51,2555.57 2262.16,2559.98 2251.00,2560.00
             2251.00,2560.00 1976.00,2560.00 1976.00,2560.00
             1976.00,2560.00 1896.00,2560.00 1896.00,2560.00
             1896.00,2560.00 1874.00,2560.00 1874.00,2560.00
             1869.72,2560.00 1865.03,2560.60 1861.00,2559.00
             1861.00,2559.00 1903.00,2527.88 1903.00,2527.88 Z" />
  <path id="head_outline"
        fill="#ebd463" stroke="#ebd463" stroke-width="1"
        d="M 304.00,740.00
           C 295.99,731.98 288.81,723.17 282.15,714.00
             256.56,678.77 237.52,636.17 223.67,595.00
             203.79,535.94 192.82,473.88 186.83,412.00
             186.83,412.00 183.91,377.00 183.91,377.00
             183.91,377.00 183.00,367.00 183.00,367.00
             183.00,367.00 182.00,342.00 182.00,342.00
             182.00,342.00 181.00,325.00 181.00,325.00
             181.00,325.00 181.00,276.00 181.00,276.00
             181.00,276.00 182.00,259.00 182.00,259.00
             182.00,259.00 182.00,254.00 182.00,254.00
             182.00,254.00 182.96,243.00 182.96,243.00
             184.11,216.72 187.85,182.85 192.80,157.00
             201.44,111.96 210.66,77.37 228.85,35.00
             228.85,35.00 240.26,11.00 240.26,11.00
             241.43,8.73 244.73,2.31 246.63,0.99
             248.44,-0.26 251.85,0.00 254.00,0.00
             254.00,0.00 321.00,0.00 321.00,0.00
             321.00,0.00 307.72,40.00 307.72,40.00
             307.72,40.00 278.37,143.00 278.37,143.00
             262.42,206.03 250.30,270.31 243.83,335.00
             243.83,335.00 240.00,386.00 240.00,386.00
             240.00,386.00 239.00,403.00 239.00,403.00
             239.00,403.00 239.00,442.00 239.00,442.00
             239.00,442.00 240.00,459.00 240.00,459.00
             240.00,459.00 243.83,504.00 243.83,504.00
             249.38,559.45 264.01,619.51 282.69,672.00
             282.69,672.00 303.31,723.00 303.31,723.00
             303.31,723.00 316.00,750.00 316.00,750.00
             310.82,747.55 308.00,744.01 304.00,740.00 Z
           M 467.00,259.00
           C 467.00,259.00 468.00,243.00 468.00,243.00
             468.00,243.00 468.91,232.00 468.91,232.00
             468.91,232.00 471.84,200.00 471.84,200.00
             474.89,171.44 481.73,129.73 488.63,102.00
             495.29,75.23 502.13,48.67 512.40,23.00
             514.09,18.77 520.22,3.04 523.39,1.02
             525.34,-0.22 528.73,0.00 531.00,0.00
             531.00,0.00 554.00,0.00 554.00,0.00
             554.00,0.00 541.73,47.00 541.73,47.00
             541.73,47.00 528.42,104.00 528.42,104.00
             519.20,145.98 511.98,188.35 506.72,231.00
             506.72,231.00 502.91,270.00 502.91,270.00
             502.91,270.00 502.00,281.00 502.00,281.00
             502.00,281.00 501.00,298.00 501.00,298.00
             501.00,298.00 501.00,316.00 501.00,316.00
             501.00,316.00 500.00,332.00 500.00,332.00
             500.00,332.00 499.00,386.00 499.00,386.00
             499.00,386.00 498.00,403.00 498.00,403.00
             497.99,409.94 499.43,426.70 496.00,432.00
             476.78,374.35 466.29,319.91 467.00,259.00 Z
           M 1010.00,0.00
           C 1005.72,22.74 995.37,59.50 988.34,82.00
             986.19,88.89 980.38,110.28 977.00,115.00
             977.00,115.00 977.00,71.00 977.00,71.00
             976.97,48.90 969.88,21.67 965.00,0.00
             965.00,0.00 1010.00,0.00 1010.00,0.00 Z
           M 2275.00,811.29
           C 2277.81,810.48 2283.77,808.25 2286.35,810.01
             2287.98,811.11 2289.08,814.22 2289.85,816.00
             2289.85,816.00 2295.97,832.00 2295.97,832.00
             2302.92,853.83 2306.50,876.40 2309.73,899.00
             2312.55,918.71 2314.77,945.15 2315.00,965.00
             2315.00,965.00 2316.00,980.00 2316.00,980.00
             2316.00,980.00 2316.00,1037.00 2316.00,1037.00
             2316.00,1037.00 2315.00,1052.00 2315.00,1052.00
             2314.97,1072.63 2311.85,1100.24 2309.28,1121.00
             2309.28,1121.00 2300.60,1178.00 2300.60,1178.00
             2299.45,1183.78 2297.67,1196.44 2295.00,1201.00
             2292.20,1180.26 2278.83,1137.68 2270.58,1118.00
             2270.58,1118.00 2259.75,1094.00 2259.75,1094.00
             2257.81,1090.11 2253.80,1083.00 2253.21,1079.00
             2252.64,1075.15 2254.38,1064.50 2254.83,1060.00
             2254.83,1060.00 2257.83,1028.00 2257.83,1028.00
             2257.83,1028.00 2259.09,1006.00 2259.09,1006.00
             2259.09,1006.00 2261.00,971.00 2261.00,971.00
             2261.00,971.00 2262.00,956.00 2262.00,956.00
             2262.00,956.00 2262.00,935.00 2262.00,935.00
             2262.00,935.00 2261.00,917.00 2261.00,917.00
             2261.00,917.00 2260.09,906.00 2260.09,906.00
             2260.09,906.00 2253.58,850.00 2253.58,850.00
             2253.58,850.00 2248.00,819.00 2248.00,819.00
             2248.00,819.00 2275.00,811.29 2275.00,811.29 Z
           M 2263.21,1320.00
           C 2263.93,1323.30 2265.00,1326.59 2264.66,1330.00
             2264.66,1330.00 2259.13,1354.00 2259.13,1354.00
             2249.98,1390.54 2238.31,1426.53 2225.69,1462.00
             2186.98,1570.80 2136.70,1666.68 2074.95,1764.00
             2055.35,1794.89 2033.57,1824.75 2011.63,1854.00
             2011.63,1854.00 1992.40,1879.00 1992.40,1879.00
             1990.61,1881.25 1984.21,1888.74 1983.62,1890.96
             1982.59,1894.90 1990.28,1899.66 1993.00,1901.92
             1993.00,1901.92 2028.00,1929.60 2028.00,1929.60
             2053.79,1950.22 2083.66,1972.90 2093.56,2006.00
             2096.94,2017.29 2097.13,2025.42 2097.00,2037.00
             2096.53,2076.84 2073.27,2112.72 2046.00,2140.00
             1999.07,2186.95 1938.70,2223.03 1878.00,2249.42
             1799.54,2283.54 1728.30,2304.29 1644.00,2318.43
             1644.00,2318.43 1579.00,2327.00 1579.00,2327.00
             1579.00,2327.00 1570.00,2327.00 1570.00,2327.00
             1570.00,2327.00 1541.00,2329.00 1541.00,2329.00
             1541.00,2329.00 1524.00,2330.00 1524.00,2330.00
             1524.00,2330.00 1483.00,2330.00 1483.00,2330.00
             1483.00,2330.00 1462.00,2329.00 1462.00,2329.00
             1462.00,2329.00 1442.00,2327.17 1442.00,2327.17
             1442.00,2327.17 1379.00,2319.08 1379.00,2319.08
             1330.74,2311.09 1282.85,2299.33 1236.00,2285.28
             1236.00,2285.28 1180.00,2267.35 1180.00,2267.35
             1180.00,2267.35 1168.00,2264.64 1168.00,2264.64
             1168.00,2264.64 1107.00,2242.00 1107.00,2242.00
             1107.00,2242.00 1108.91,2266.00 1108.91,2266.00
             1108.91,2266.00 1114.00,2326.00 1114.00,2326.00
             1114.00,2326.00 1114.00,2335.00 1114.00,2335.00
             1114.00,2335.00 1119.09,2396.00 1119.09,2396.00
             1119.09,2396.00 1121.79,2425.00 1121.79,2425.00
             1121.79,2425.00 1121.18,2433.00 1121.18,2433.00
             1121.18,2433.00 1122.17,2447.00 1122.17,2447.00
             1122.17,2447.00 1128.09,2519.00 1128.09,2519.00
             1128.09,2519.00 1131.00,2560.00 1131.00,2560.00
             1131.00,2560.00 1101.00,2560.00 1101.00,2560.00
             1098.86,2560.00 1095.29,2560.23 1093.51,2558.98
             1091.08,2557.28 1088.41,2547.20 1087.33,2544.00
             1087.33,2544.00 1071.58,2501.00 1071.58,2501.00
             1071.58,2501.00 1064.52,2482.00 1064.52,2482.00
             1064.52,2482.00 1062.91,2456.00 1062.91,2456.00
             1062.91,2456.00 1059.91,2414.00 1059.91,2414.00
             1059.91,2414.00 1056.09,2366.00 1056.09,2366.00
             1056.09,2366.00 1053.83,2332.00 1053.83,2332.00
             1053.83,2332.00 1050.09,2289.00 1050.09,2289.00
             1050.09,2289.00 1047.83,2257.00 1047.83,2257.00
             1047.83,2257.00 1046.04,2237.00 1046.04,2237.00
             1045.85,2233.01 1045.28,2217.89 1043.26,2215.41
             1041.30,2213.01 1031.37,2209.31 1028.00,2207.77
             1028.00,2207.77 988.00,2189.74 988.00,2189.74
             988.00,2189.74 906.00,2149.42 906.00,2149.42
             900.17,2146.14 884.33,2138.88 880.33,2135.37
             877.47,2132.86 869.00,2118.26 866.32,2114.00
             866.32,2114.00 848.32,2085.00 848.32,2085.00
             845.01,2079.74 838.76,2070.54 837.00,2065.00
             837.00,2065.00 865.00,2077.74 865.00,2077.74
             865.00,2077.74 909.00,2097.58 909.00,2097.58
             965.66,2122.14 1022.81,2145.60 1081.00,2166.31
             1167.99,2197.26 1247.59,2220.99 1338.00,2240.21
             1377.99,2248.71 1418.33,2255.10 1459.00,2259.17
             1459.00,2259.17 1497.00,2262.09 1497.00,2262.09
             1497.00,2262.09 1507.00,2263.00 1507.00,2263.00
             1507.00,2263.00 1522.00,2263.00 1522.00,2263.00
             1522.00,2263.00 1538.00,2264.00 1538.00,2264.00
             1538.00,2264.00 1552.00,2264.00 1552.00,2264.00
             1552.00,2264.00 1567.00,2263.00 1567.00,2263.00
             1588.75,2262.97 1610.37,2261.00 1632.00,2258.83
             1632.00,2258.83 1668.00,2254.00 1668.00,2254.00
             1668.00,2254.00 1653.00,2241.71 1653.00,2241.71
             1653.00,2241.71 1634.09,2223.00 1634.09,2223.00
             1614.92,2202.42 1596.28,2171.74 1587.33,2145.00
             1583.65,2133.98 1580.14,2120.66 1580.00,2109.00
             1579.73,2085.80 1584.42,2063.52 1593.00,2042.00
             1598.48,2028.25 1612.38,2002.72 1624.00,1994.00
             1624.00,1994.00 1615.20,2015.00 1615.20,2015.00
             1612.01,2023.21 1608.02,2039.24 1607.17,2048.00
             1607.17,2048.00 1606.02,2065.00 1606.02,2065.00
             1606.02,2065.00 1606.83,2073.00 1606.83,2073.00
             1607.90,2083.99 1609.38,2094.33 1612.43,2105.00
             1622.25,2139.43 1646.98,2173.98 1672.00,2199.00
             1684.00,2211.00 1696.90,2221.87 1711.00,2231.33
             1714.51,2233.68 1724.21,2240.13 1728.00,2240.68
             1731.63,2241.20 1747.65,2236.31 1752.00,2234.98
             1752.00,2234.98 1805.00,2217.05 1805.00,2217.05
             1863.55,2195.16 1922.07,2161.47 1969.00,2120.15
             1988.61,2102.89 2011.28,2079.06 2023.82,2056.00
             2027.26,2049.68 2031.26,2041.08 2032.31,2034.00
             2033.52,2028.54 2032.99,2022.44 2032.31,2017.00
             2026.66,1984.82 1996.38,1970.60 1972.00,1953.97
             1951.27,1939.84 1927.56,1922.18 1911.44,1903.00
             1890.35,1877.92 1875.45,1841.71 1867.77,1810.00
             1867.77,1810.00 1860.58,1774.00 1860.58,1774.00
             1859.84,1769.02 1858.13,1762.73 1860.00,1758.00
             1875.23,1785.13 1909.91,1825.62 1932.01,1848.00
             1932.01,1848.00 1951.00,1866.01 1951.00,1866.01
             1952.96,1867.91 1957.11,1872.62 1959.91,1872.66
             1962.49,1872.70 1966.24,1867.82 1968.01,1866.00
             1968.01,1866.00 1987.25,1845.00 1987.25,1845.00
             2011.98,1815.48 2035.55,1785.01 2057.00,1753.00
             2120.93,1657.57 2174.57,1555.40 2215.42,1448.00
             2215.42,1448.00 2245.34,1363.00 2245.34,1363.00
             2245.34,1363.00 2260.00,1312.00 2260.00,1312.00
             2262.44,1315.04 2262.40,1316.29 2263.21,1320.00 Z
           M 1774.16,1985.00
           C 1774.90,1992.75 1775.53,2000.59 1778.08,2008.00
             1786.84,2033.54 1813.88,2043.89 1839.00,2044.00
             1842.62,2044.01 1849.10,2043.18 1852.00,2044.00
             1834.77,2050.89 1823.73,2055.16 1805.00,2057.16
             1801.49,2057.54 1799.77,2058.12 1796.00,2057.91
             1790.71,2057.61 1782.86,2056.18 1778.00,2054.13
             1757.82,2045.60 1750.86,2018.72 1756.77,1999.00
             1759.98,1988.30 1766.28,1979.89 1774.16,1972.00
             1776.01,1977.09 1773.95,1979.95 1774.16,1985.00 Z" />
  <path id="head"
        fill="#fff8ad" stroke="#fff8ad" stroke-width="1"
        d="M 306.26,729.00
           C 306.26,729.00 295.42,704.00 295.42,704.00
             281.01,669.65 268.48,630.26 259.88,594.00
             251.67,559.37 246.26,524.39 242.83,489.00
             242.83,489.00 240.91,462.00 240.91,462.00
             240.91,462.00 240.00,450.00 240.00,450.00
             240.00,450.00 240.00,394.00 240.00,394.00
             240.00,394.00 241.00,375.00 241.00,375.00
             241.00,375.00 241.91,365.00 241.91,365.00
             241.91,365.00 244.83,331.00 244.83,331.00
             250.07,278.62 259.70,228.39 270.79,177.00
             278.19,142.72 287.59,108.66 297.42,75.00
             297.42,75.00 307.86,41.00 307.86,41.00
             307.86,41.00 317.81,11.00 317.81,11.00
             318.75,8.51 320.49,2.44 322.51,1.02
             324.29,-0.23 327.86,0.00 330.00,0.00
             330.00,0.00 522.00,0.00 522.00,0.00
             522.00,0.00 508.20,33.00 508.20,33.00
             508.20,33.00 494.42,77.00 494.42,77.00
             486.65,104.95 481.36,133.43 476.57,162.00
             472.35,187.13 469.07,212.56 467.96,238.00
             467.96,238.00 467.00,251.00 467.00,251.00
             467.00,251.00 467.00,288.00 467.00,288.00
             467.00,288.00 467.91,300.00 467.91,300.00
             467.91,300.00 472.41,340.00 472.41,340.00
             476.11,362.98 481.13,385.74 487.98,408.00
             490.51,416.22 493.26,428.05 498.04,435.00
             498.04,435.00 498.04,423.00 498.04,423.00
             498.04,423.00 499.00,411.00 499.00,411.00
             499.00,411.00 499.00,389.00 499.00,389.00
             499.00,389.00 500.00,374.00 500.00,374.00
             500.00,374.00 500.00,357.00 500.00,357.00
             500.00,357.00 501.00,340.00 501.00,340.00
             501.06,300.21 503.24,260.50 508.28,221.00
             513.49,180.26 521.63,140.21 529.80,100.00
             529.80,100.00 548.37,23.00 548.37,23.00
             548.37,23.00 552.71,7.00 552.71,7.00
             553.25,5.14 553.94,2.21 555.56,1.02
             557.27,-0.23 560.91,0.00 563.00,0.00
             563.00,0.00 965.00,0.00 965.00,0.00
             965.00,0.00 970.34,25.00 970.34,25.00
             970.34,25.00 975.91,61.00 975.91,61.00
             975.91,61.00 977.00,96.00 977.00,96.00
             977.00,96.00 978.00,117.00 978.00,117.00
             978.00,117.00 981.98,104.00 981.98,104.00
             981.98,104.00 989.98,78.00 989.98,78.00
             989.98,78.00 1004.15,27.00 1004.15,27.00
             1004.15,27.00 1008.87,8.00 1008.87,8.00
             1009.37,5.98 1009.89,2.31 1011.58,1.02
             1013.24,-0.24 1016.96,0.00 1019.00,0.00
             1019.00,0.00 1186.00,0.00 1186.00,0.00
             1196.04,0.02 1200.94,3.37 1210.00,7.28
             1210.00,7.28 1247.00,24.14 1247.00,24.14
             1295.69,45.83 1366.47,87.85 1410.00,118.86
             1410.00,118.86 1450.00,147.88 1450.00,147.88
             1481.95,172.25 1512.62,198.71 1542.00,226.09
             1542.00,226.09 1569.00,253.00 1569.00,253.00
             1699.05,383.05 1799.24,544.60 1867.40,715.00
             1887.75,765.87 1905.40,817.31 1920.42,870.00
             1926.23,890.37 1938.34,936.30 1941.00,956.00
             1941.00,956.00 1963.00,944.31 1963.00,944.31
             1963.00,944.31 2005.00,922.26 2005.00,922.26
             2005.00,922.26 2041.00,904.74 2041.00,904.74
             2078.91,886.39 2117.05,869.06 2156.00,852.99
             2174.63,845.30 2229.51,823.99 2247.00,820.00
             2249.88,827.89 2253.89,855.35 2255.27,865.00
             2255.27,865.00 2260.00,910.00 2260.00,910.00
             2260.00,910.00 2261.00,929.00 2261.00,929.00
             2261.00,929.00 2261.00,964.00 2261.00,964.00
             2261.00,964.00 2260.04,976.00 2260.04,976.00
             2260.04,976.00 2260.04,988.00 2260.04,988.00
             2260.04,988.00 2259.09,998.00 2259.09,998.00
             2259.09,998.00 2257.91,1020.00 2257.91,1020.00
             2257.91,1020.00 2255.08,1050.00 2255.08,1050.00
             2254.59,1056.18 2253.98,1072.40 2251.00,1077.00
             2243.42,1061.23 2226.89,1037.78 2214.98,1025.00
             2203.83,1013.04 2193.49,1003.15 2180.00,993.72
             2171.24,987.60 2161.74,982.48 2152.00,978.14
             2146.89,975.86 2143.82,973.80 2138.00,973.17
             2117.02,970.89 2096.40,985.85 2083.43,1001.00
             2068.74,1018.15 2057.87,1040.76 2047.75,1061.00
             2047.75,1061.00 2017.31,1121.00 2017.31,1121.00
             1994.39,1168.29 1971.88,1215.70 1951.15,1264.00
             1939.19,1291.86 1922.81,1332.33 1914.42,1361.00
             1903.52,1398.29 1892.59,1472.70 1887.28,1513.00
             1887.28,1513.00 1875.00,1619.00 1875.00,1619.00
             1875.00,1619.00 1875.00,1627.00 1875.00,1627.00
             1875.00,1627.00 1871.91,1665.00 1871.91,1665.00
             1871.91,1665.00 1871.00,1676.00 1871.00,1676.00
             1871.00,1676.00 1870.00,1696.00 1870.00,1696.00
             1870.00,1696.00 1870.00,1756.00 1870.00,1756.00
             1870.01,1761.36 1871.76,1768.55 1870.00,1773.00
             1870.00,1773.00 1858.00,1756.00 1858.00,1756.00
             1858.28,1768.78 1863.41,1794.15 1866.63,1807.00
             1877.85,1851.91 1896.11,1892.83 1932.00,1923.57
             1932.00,1923.57 1968.00,1951.28 1968.00,1951.28
             1995.37,1970.41 2029.12,1984.32 2032.08,2022.00
             2032.66,2029.31 2033.04,2029.39 2031.34,2037.00
             2025.89,2061.30 2001.22,2088.78 1984.00,2106.00
             1934.93,2155.07 1872.98,2189.61 1809.00,2215.20
             1789.75,2222.90 1769.94,2229.47 1750.00,2235.14
             1745.36,2236.46 1730.92,2241.15 1727.00,2240.27
             1723.66,2239.51 1715.31,2233.87 1712.00,2231.81
             1697.14,2222.55 1683.34,2210.34 1671.00,2198.00
             1638.29,2165.29 1607.07,2115.83 1607.00,2068.00
             1607.00,2068.00 1607.00,2060.00 1607.00,2060.00
             1607.03,2040.84 1613.29,2018.33 1621.31,2001.00
             1621.31,2001.00 1627.00,1990.00 1627.00,1990.00
             1598.49,2018.60 1581.54,2058.79 1580.12,2099.00
             1579.72,2105.31 1579.51,2111.70 1580.12,2118.00
             1583.31,2142.59 1596.37,2170.32 1609.69,2191.00
             1621.88,2209.93 1632.08,2221.26 1648.00,2237.00
             1648.00,2237.00 1667.00,2254.00 1667.00,2254.00
             1667.00,2254.00 1637.00,2257.72 1637.00,2257.72
             1637.00,2257.72 1617.00,2259.83 1617.00,2259.83
             1586.42,2262.76 1555.74,2263.05 1525.00,2263.00
             1525.00,2263.00 1509.00,2262.00 1509.00,2262.00
             1509.00,2262.00 1477.00,2260.09 1477.00,2260.09
             1426.61,2256.63 1376.34,2248.26 1327.00,2237.42
             1228.78,2215.85 1132.97,2186.17 1039.00,2150.42
             991.81,2132.47 945.18,2113.27 899.00,2092.86
             899.00,2092.86 854.00,2072.25 854.00,2072.25
             849.44,2069.98 839.57,2066.13 836.18,2063.37
             832.08,2060.02 820.42,2039.84 816.81,2034.00
             816.81,2034.00 778.58,1973.00 778.58,1973.00
             778.58,1973.00 647.58,1763.00 647.58,1763.00
             647.58,1763.00 535.80,1579.00 535.80,1579.00
             535.80,1579.00 503.99,1525.00 503.99,1525.00
             487.10,1496.26 470.24,1467.34 456.31,1437.00
             385.84,1283.55 346.35,1123.01 318.92,957.00
             318.92,957.00 304.28,857.00 304.28,857.00
             304.28,857.00 300.72,825.00 300.72,825.00
             297.82,801.55 292.00,749.96 292.00,728.00
             292.00,728.00 318.00,753.00 318.00,753.00
             318.00,753.00 306.26,729.00 306.26,729.00 Z
           M 742.75,1060.00
           C 742.75,1060.00 739.91,1087.00 739.91,1087.00
             739.91,1087.00 739.01,1096.00 739.01,1096.00
             739.01,1096.00 739.96,1109.00 739.96,1109.00
             742.82,1172.38 778.78,1230.59 830.00,1267.00
             830.00,1267.00 790.00,1272.52 790.00,1272.52
             784.24,1273.09 778.69,1268.88 774.00,1265.95
             774.00,1265.95 741.00,1242.88 741.00,1242.88
             702.35,1213.00 677.52,1177.01 657.31,1133.00
             657.31,1133.00 642.05,1096.00 642.05,1096.00
             640.11,1090.63 638.67,1082.50 636.00,1078.00
             632.76,1083.57 631.97,1105.76 632.00,1113.00
             632.00,1113.00 632.91,1124.00 632.91,1124.00
             636.60,1176.83 658.19,1220.96 697.00,1257.08
             707.05,1266.44 731.47,1285.37 744.00,1290.00
             741.85,1292.12 739.01,1295.40 736.00,1296.11
             732.98,1296.83 725.11,1294.34 722.00,1293.33
             709.88,1289.38 701.16,1285.30 690.00,1279.23
             655.09,1260.24 630.71,1225.25 607.37,1194.00
             601.83,1186.58 586.44,1163.60 581.00,1159.00
             581.57,1171.21 590.60,1196.34 595.58,1208.00
             612.42,1247.40 637.85,1285.34 674.00,1309.33
             687.02,1317.98 705.23,1327.71 721.00,1329.00
             721.00,1329.00 720.00,1345.00 720.00,1345.00
             725.77,1342.27 728.15,1338.44 733.00,1334.46
             739.26,1329.33 747.29,1324.63 755.00,1322.09
             755.00,1322.09 774.00,1317.53 774.00,1317.53
             808.43,1309.03 832.73,1306.95 868.00,1307.00
             868.00,1307.00 896.00,1308.91 896.00,1308.91
             923.33,1310.78 950.03,1314.71 977.00,1319.58
             1030.49,1329.22 1085.22,1344.11 1137.00,1360.66
             1216.88,1386.19 1294.05,1418.14 1364.00,1465.00
             1400.22,1489.27 1440.77,1523.52 1467.35,1558.00
             1475.06,1568.01 1490.88,1589.34 1494.25,1601.00
             1496.80,1609.82 1498.98,1637.33 1499.00,1647.00
             1499.01,1653.17 1498.90,1668.67 1509.00,1666.53
             1513.16,1665.64 1516.39,1661.32 1518.64,1658.00
             1524.07,1649.97 1528.47,1639.18 1531.66,1630.00
             1541.53,1601.54 1550.86,1556.19 1556.08,1526.00
             1556.08,1526.00 1560.41,1501.00 1560.41,1501.00
             1561.08,1497.03 1562.41,1492.86 1561.00,1489.00
             1561.00,1489.00 1533.15,1551.00 1533.15,1551.00
             1530.23,1557.80 1523.53,1575.42 1519.00,1580.00
             1518.04,1570.78 1512.38,1562.53 1507.33,1555.00
             1497.13,1539.80 1480.99,1521.99 1468.00,1509.00
             1411.87,1452.87 1361.72,1413.24 1291.00,1376.74
             1291.00,1376.74 1255.00,1358.26 1255.00,1358.26
             1188.01,1325.83 1102.82,1295.27 1030.00,1279.79
             1003.77,1274.21 977.70,1269.42 951.00,1266.83
             951.00,1266.83 932.00,1265.00 932.00,1265.00
             932.00,1265.00 908.00,1264.00 908.00,1264.00
             898.39,1263.95 895.75,1260.50 888.00,1255.33
             888.00,1255.33 858.00,1233.42 858.00,1233.42
             833.63,1214.40 807.00,1187.13 791.86,1160.00
             781.22,1140.93 762.39,1090.05 755.34,1068.00
             755.34,1068.00 748.00,1042.00 748.00,1042.00
             744.95,1046.51 743.67,1054.58 742.75,1060.00 Z
           M 1562.00,1483.00
           C 1562.00,1483.00 1561.00,1488.00 1561.00,1488.00
             1561.00,1488.00 1564.00,1483.00 1564.00,1483.00
             1564.00,1483.00 1562.00,1483.00 1562.00,1483.00 Z
           M 1758.31,1993.00
           C 1750.88,2009.59 1753.42,2032.04 1765.32,2045.99
             1780.88,2064.21 1811.97,2058.32 1832.00,2052.28
             1837.62,2050.59 1850.85,2046.69 1854.00,2042.00
             1847.90,2043.48 1841.27,2043.07 1835.00,2043.00
             1813.44,2042.74 1789.55,2032.48 1780.31,2012.00
             1776.59,2003.74 1774.90,1991.06 1775.00,1982.00
             1775.07,1975.84 1776.21,1972.87 1777.00,1967.00
             1769.63,1975.44 1762.95,1982.64 1758.31,1993.00 Z
           M 1627.00,1989.00
           C 1627.00,1989.00 1628.00,1990.00 1628.00,1990.00
             1628.00,1990.00 1628.00,1989.00 1628.00,1989.00
             1628.00,1989.00 1627.00,1989.00 1627.00,1989.00 Z
           M 916.00,2154.75
           C 916.00,2154.75 996.00,2193.69 996.00,2193.69
             996.00,2193.69 1029.00,2208.42 1029.00,2208.42
             1029.00,2208.42 1043.01,2215.64 1043.01,2215.64
             1043.01,2215.64 1045.17,2234.00 1045.17,2234.00
             1045.17,2234.00 1049.09,2284.00 1049.09,2284.00
             1049.09,2284.00 1055.91,2367.00 1055.91,2367.00
             1055.91,2367.00 1059.17,2415.00 1059.17,2415.00
             1059.17,2415.00 1062.09,2458.00 1062.09,2458.00
             1062.09,2458.00 1063.00,2480.00 1063.00,2480.00
             1032.66,2404.14 986.69,2315.85 945.58,2245.00
             945.58,2245.00 901.40,2171.00 901.40,2171.00
             901.40,2171.00 881.00,2137.00 881.00,2137.00
             881.00,2137.00 916.00,2154.75 916.00,2154.75 Z" />
  <path id="glare"
        fill="#ffffff" stroke="#ffffff" stroke-width="1"
        d="M 2119.00,1087.01
           C 2124.80,1081.35 2133.63,1073.89 2142.00,1073.19
             2148.53,1072.64 2154.81,1075.80 2160.00,1079.44
             2170.07,1086.51 2180.56,1099.65 2187.31,1110.00
             2213.94,1150.90 2233.54,1207.98 2246.86,1255.00
             2246.86,1255.00 2256.37,1291.00 2256.37,1291.00
             2257.67,1296.19 2260.30,1304.87 2259.69,1310.00
             2259.69,1310.00 2248.02,1352.00 2248.02,1352.00
             2248.02,1352.00 2218.05,1439.00 2218.05,1439.00
             2218.05,1439.00 2190.42,1506.00 2190.42,1506.00
             2190.42,1506.00 2164.22,1565.00 2164.22,1565.00
             2135.47,1625.85 2097.64,1692.38 2059.81,1748.00
             2038.73,1778.99 2016.57,1809.19 1992.59,1838.00
             1992.59,1838.00 1973.28,1860.00 1973.28,1860.00
             1970.90,1862.71 1964.95,1869.85 1962.00,1871.26
             1958.41,1872.97 1955.54,1869.58 1953.00,1867.42
             1953.00,1867.42 1936.00,1851.00 1936.00,1851.00
             1934.24,1849.24 1929.93,1845.30 1929.33,1843.00
             1928.45,1839.64 1933.01,1835.31 1935.05,1833.00
             1935.05,1833.00 1955.88,1808.00 1955.88,1808.00
             1955.88,1808.00 1978.63,1779.00 1978.63,1779.00
             1995.93,1756.03 2016.08,1726.66 2030.80,1702.00
             2069.63,1636.93 2101.17,1552.72 2126.69,1481.00
             2143.25,1434.47 2162.84,1373.90 2173.42,1326.00
             2177.99,1305.32 2184.97,1273.72 2185.00,1253.00
             2185.00,1253.00 2185.00,1204.00 2185.00,1204.00
             2185.00,1204.00 2184.09,1194.00 2184.09,1194.00
             2182.58,1172.35 2179.23,1144.64 2169.74,1125.00
             2164.89,1114.96 2158.53,1105.00 2148.00,1100.09
             2134.95,1094.22 2121.38,1099.38 2108.00,1100.09
             2111.28,1094.38 2114.39,1091.51 2119.00,1087.01 Z
           M 2149.00,1170.52
           C 2165.06,1179.63 2168.20,1192.92 2168.00,1210.00
             2168.00,1210.00 2167.09,1220.00 2167.09,1220.00
             2163.61,1269.69 2143.00,1316.84 2119.30,1360.00
             2108.71,1379.30 2091.52,1407.40 2075.00,1421.57
             2070.67,1425.28 2064.93,1429.85 2060.00,1432.66
             2038.49,1444.96 2000.22,1448.71 1991.21,1419.00
             1989.50,1413.36 1989.01,1408.85 1989.00,1403.00
             1989.00,1403.00 1989.00,1393.00 1989.00,1393.00
             1989.03,1371.36 1999.02,1337.67 2006.31,1317.00
             2019.00,1281.01 2036.52,1247.06 2060.21,1217.00
             2074.41,1198.98 2096.65,1175.88 2119.00,1168.75
             2124.08,1167.12 2126.93,1167.15 2132.00,1166.43
             2138.11,1165.82 2143.67,1167.51 2149.00,1170.52 Z
           M 2034.00,1539.55
           C 2037.47,1540.25 2039.79,1540.33 2043.00,1542.23
             2053.16,1548.22 2053.12,1558.75 2053.00,1569.00
             2052.84,1582.15 2045.16,1595.95 2036.00,1604.99
             2030.20,1610.70 2021.60,1616.52 2013.00,1615.66
             1997.39,1614.11 1992.85,1598.37 1993.00,1585.00
             1993.20,1567.58 2006.47,1543.25 2024.00,1538.53
             2028.83,1537.97 2029.46,1538.64 2034.00,1539.55 Z" />
  <path id="eyelashes"
        fill="#000000" stroke="#000000" stroke-width="1"
        d="M 1873.68,1777.00
           C 1872.33,1773.62 1871.05,1758.15 1871.00,1754.00
             1871.00,1754.00 1871.00,1703.00 1871.00,1703.00
             1871.00,1703.00 1872.00,1682.00 1872.00,1682.00
             1872.00,1682.00 1872.91,1670.00 1872.91,1670.00
             1872.91,1670.00 1874.09,1646.00 1874.09,1646.00
             1874.09,1646.00 1876.00,1630.00 1876.00,1630.00
             1876.00,1630.00 1876.00,1622.00 1876.00,1622.00
             1876.00,1622.00 1881.17,1572.00 1881.17,1572.00
             1881.17,1572.00 1886.85,1527.00 1886.85,1527.00
             1886.85,1527.00 1900.57,1433.00 1900.57,1433.00
             1904.66,1408.61 1908.58,1383.71 1915.72,1360.00
             1926.25,1325.04 1941.05,1289.51 1955.58,1256.00
             1972.07,1217.96 1989.21,1180.09 2007.75,1143.00
             2007.75,1143.00 2017.25,1123.00 2017.25,1123.00
             2017.25,1123.00 2048.75,1061.00 2048.75,1061.00
             2057.55,1043.42 2069.41,1018.83 2081.61,1004.00
             2094.92,987.84 2117.68,970.41 2140.00,974.62
             2147.52,976.04 2159.23,982.13 2166.00,986.00
             2185.16,996.95 2201.71,1010.25 2216.13,1027.00
             2264.66,1083.37 2286.42,1156.18 2299.39,1228.00
             2299.39,1228.00 2308.00,1284.00 2308.00,1284.00
             2308.65,1288.73 2310.69,1308.04 2312.17,1311.00
             2313.66,1313.96 2318.50,1318.57 2321.00,1320.96
             2327.89,1327.55 2335.38,1333.65 2343.00,1339.37
             2367.14,1357.50 2390.43,1369.48 2419.00,1379.00
             2429.94,1382.65 2445.60,1387.08 2457.00,1388.00
             2447.76,1398.88 2424.68,1401.98 2411.00,1402.00
             2387.33,1402.04 2365.17,1391.00 2345.00,1379.58
             2345.00,1379.58 2318.00,1364.00 2318.00,1364.00
             2318.00,1364.00 2325.59,1416.00 2325.59,1416.00
             2326.38,1420.71 2328.20,1434.51 2329.95,1438.00
             2333.41,1444.92 2348.59,1457.88 2355.00,1463.25
             2381.25,1485.20 2409.49,1500.08 2443.00,1507.34
             2453.20,1509.55 2460.01,1509.50 2470.00,1510.39
             2473.93,1510.73 2476.40,1509.68 2480.00,1511.00
             2480.00,1511.00 2464.00,1518.94 2464.00,1518.94
             2443.63,1526.67 2416.85,1528.58 2396.00,1521.97
             2377.65,1516.16 2363.62,1506.89 2347.00,1498.00
             2353.56,1513.15 2365.88,1528.74 2376.84,1541.00
             2395.15,1561.51 2415.85,1579.95 2438.00,1596.27
             2438.00,1596.27 2476.00,1622.85 2476.00,1622.85
             2462.53,1624.09 2450.51,1625.21 2437.00,1622.85
             2403.90,1616.52 2379.02,1594.01 2356.00,1571.00
             2341.28,1556.29 2329.40,1544.63 2319.31,1526.00
             2303.45,1496.72 2292.53,1448.00 2284.77,1415.00
             2284.77,1415.00 2266.34,1329.00 2266.34,1329.00
             2258.58,1293.19 2248.23,1252.69 2236.67,1218.00
             2224.39,1181.18 2204.74,1130.37 2180.99,1100.00
             2172.68,1089.39 2156.99,1071.02 2142.00,1072.12
             2130.99,1072.92 2116.55,1088.05 2109.73,1096.00
             2087.51,1121.93 2068.55,1151.76 2051.00,1181.00
             2060.64,1179.73 2066.20,1179.01 2075.00,1184.47
             2077.11,1185.78 2080.80,1188.22 2080.80,1191.01
             2080.80,1193.97 2071.06,1203.11 2068.58,1206.00
             2058.07,1218.28 2048.20,1231.18 2039.80,1245.00
             2016.01,1284.12 1991.99,1341.12 1988.00,1387.00
             1987.45,1393.31 1986.74,1395.11 1987.04,1402.00
             1987.77,1418.72 1994.78,1435.39 2012.00,1440.78
             2015.58,1441.90 2022.23,1442.90 2026.00,1442.99
             2038.34,1443.27 2050.57,1439.41 2061.00,1432.94
             2061.00,1432.94 2073.00,1425.00 2073.00,1425.00
             2073.00,1425.00 2064.42,1459.00 2064.42,1459.00
             2064.42,1459.00 2046.66,1515.00 2046.66,1515.00
             2046.66,1515.00 2038.00,1538.88 2038.00,1538.88
             2031.30,1537.78 2026.63,1536.07 2020.00,1538.88
             2012.35,1541.87 2004.91,1550.94 2000.87,1558.00
             1996.97,1564.82 1992.37,1575.18 1991.48,1583.00
             1990.16,1594.55 1995.66,1607.29 2005.00,1614.00
             2002.61,1622.40 1987.82,1649.10 1982.86,1658.00
             1964.81,1690.35 1944.91,1722.00 1921.80,1751.00
             1921.80,1751.00 1899.17,1778.00 1899.17,1778.00
             1894.51,1783.17 1890.42,1788.96 1884.00,1792.00
             1881.44,1788.40 1875.07,1780.46 1873.68,1777.00 Z
           M 754.34,1069.00
           C 754.34,1069.00 771.20,1116.00 771.20,1116.00
             771.20,1116.00 790.43,1160.00 790.43,1160.00
             806.93,1188.83 831.20,1213.56 857.00,1234.20
             857.00,1234.20 889.00,1257.67 889.00,1257.67
             895.58,1262.05 899.83,1265.88 908.00,1266.00
             908.00,1266.00 928.00,1266.00 928.00,1266.00
             928.00,1266.00 965.00,1269.72 965.00,1269.72
             1002.99,1274.45 1040.07,1282.85 1077.00,1292.85
             1147.69,1311.99 1227.63,1343.88 1292.00,1378.69
             1333.47,1401.12 1374.17,1426.02 1410.00,1456.87
             1434.60,1478.06 1461.60,1502.85 1483.16,1527.00
             1493.98,1539.11 1511.44,1559.78 1516.76,1575.00
             1516.76,1575.00 1519.00,1585.00 1519.00,1585.00
             1519.00,1585.00 1549.23,1518.00 1549.23,1518.00
             1549.23,1518.00 1560.00,1495.00 1560.00,1495.00
             1560.00,1495.00 1548.45,1558.00 1548.45,1558.00
             1544.13,1579.55 1538.28,1606.34 1531.33,1627.00
             1528.38,1635.77 1521.99,1651.94 1516.47,1659.00
             1515.47,1660.28 1514.20,1661.71 1512.96,1662.77
             1504.22,1670.25 1501.64,1661.03 1500.72,1654.00
             1500.17,1649.84 1500.02,1649.33 1500.00,1645.00
             1500.00,1645.00 1500.00,1640.00 1500.00,1640.00
             1499.90,1631.43 1497.62,1606.57 1494.91,1599.00
             1490.23,1585.96 1474.66,1565.06 1465.80,1554.00
             1436.48,1517.41 1398.89,1486.93 1360.00,1461.00
             1273.96,1403.64 1175.98,1369.10 1077.00,1341.58
             1028.78,1328.17 970.65,1314.80 921.00,1309.83
             921.00,1309.83 908.00,1308.17 908.00,1308.17
             908.00,1308.17 887.00,1306.91 887.00,1306.91
             887.00,1306.91 875.00,1306.00 875.00,1306.00
             875.00,1306.00 842.00,1306.00 842.00,1306.00
             823.87,1306.03 793.85,1311.16 776.00,1315.63
             765.16,1318.34 756.20,1319.62 746.00,1324.48
             735.27,1329.60 730.73,1335.76 722.00,1342.00
             722.00,1339.23 722.87,1331.43 721.31,1329.56
             719.76,1327.69 707.36,1324.84 704.00,1323.58
             692.20,1319.13 680.24,1312.48 670.00,1305.14
             636.75,1281.30 608.93,1240.11 594.42,1202.00
             594.42,1202.00 585.71,1176.00 585.71,1176.00
             584.56,1171.93 582.82,1167.16 584.00,1163.00
             584.00,1163.00 614.13,1205.00 614.13,1205.00
             635.53,1233.54 658.05,1263.37 690.00,1280.69
             700.85,1286.57 711.29,1291.15 723.00,1295.00
             726.33,1296.09 733.61,1298.48 736.91,1297.37
             739.12,1296.63 744.01,1291.77 746.00,1290.00
             735.58,1285.35 718.08,1273.08 709.00,1265.80
             673.00,1236.96 650.28,1201.61 639.13,1157.00
             636.55,1146.68 634.02,1131.57 634.00,1121.00
             633.99,1112.37 633.24,1088.95 636.00,1082.00
             636.00,1082.00 640.69,1096.00 640.69,1096.00
             640.69,1096.00 650.86,1122.00 650.86,1122.00
             650.86,1122.00 666.69,1154.00 666.69,1154.00
             688.06,1193.43 703.29,1214.56 739.00,1243.00
             748.10,1250.24 761.11,1259.42 771.00,1265.58
             774.19,1267.56 782.78,1273.05 786.00,1273.73
             789.28,1274.43 798.30,1272.30 802.00,1271.61
             802.00,1271.61 832.00,1268.00 832.00,1268.00
             832.00,1268.00 812.00,1250.83 812.00,1250.83
             800.62,1240.54 789.97,1229.20 780.65,1217.00
             758.03,1187.37 741.06,1143.57 741.00,1106.00
             741.00,1106.00 741.00,1088.00 741.00,1088.00
             741.02,1073.87 744.23,1059.78 747.00,1046.00
             749.42,1049.96 752.58,1063.47 754.34,1069.00 Z" />

</svg>
